Log unusual events occurring during execution — event-logging • mbte
…
    Value

    A tibble with logged event-information. Each row represents an event.
The column layout is specific to the function, which produced the event-log.

    See also

    raw_signals (dataset in examples)

    Examples

library(dplyr, warn.conflicts = FALSE)
data(raw_signals)
raw_signals
#> # A tibble: 4,200 x 3
#>        t mv    value
#>    <int> <chr> <dbl>
#>  1     1 mv1       0
#>  2     2 mv1       0
#>  3     3 mv1       0
#>  4     4 mv1       0
#>  5     5 mv1       0
#>  6     6 mv1       0
#>  7     7 mv1       0
#>  8     8 mv1       0
#>  9     9 mv1       0
#> 10    10 mv1       0
#> # ... with 4,190 more rows
…
