…
    This function logs unusual events. A warning gets raised at the end of an
execution, if events have been logged. The event-log can be retrieved
by passing the returned object to mbte_event_log. In this
case, a tibble containing the logged events will be returned to the user.

    See also

    filtered_signals (dataset used in examples)

    Examples

data(filtered_signals)
filtered_signals
#> # A tibble: 37 x 3
#>    mv    signal_nr signal           
#>    <chr>     <int> <list>           
#>  1 mv1           1 <tibble [22 × 2]>
#>  2 mv3           2 <tibble [22 × 2]>
#>  3 mv5           1 <tibble [30 × 2]>
#>  4 mv6           1 <tibble [21 × 2]>
#>  5 mv6           3 <tibble [30 × 2]>
#>  6 mv7           1 <tibble [56 × 2]>
#>  7 mv8           1 <tibble [29 × 2]>
#>  8 mv8           2 <tibble [26 × 2]>
#>  9 mv9           1 <tibble [63 × 2]>
#> 10 mv10          1 <tibble [25 × 2]>
#> # ... with 27 more rows

# fit linear model to each signal (`t` denotes the time column)
fits <- mbte_fit(filtered_signals, lm = lm(value ~ t, .signal))

# define error metric (in this case normalized root mean squared error)
nrmse <- function(pred, obs) {
  sqrt(mean((pred - obs)^2)) / (max(obs) - min(obs))
}

# compute metrics
# NOTE: `.pred` and `.obs` not present in scope, but provided via masking
metrics <- mbte_compute_metrics(fits, nrmse = nrmse(.pred, .obs))
metrics
#> # A tibble: 37 x 5
#>    mv    signal_nr fit   metric result
#>    <chr>     <int> <chr> <chr>   <dbl>
#>  1 mv1           1 lm    nrmse   0.132
#>  2 mv3           2 lm    nrmse   0.147
#>  3 mv5           1 lm    nrmse   0.103
#>  4 mv6           1 lm    nrmse   0.126
#>  5 mv6           3 lm    nrmse   0.214
#>  6 mv7           1 lm    nrmse   0.122
#>  7 mv8           1 lm    nrmse   0.169
#>  8 mv8           2 lm    nrmse   0.144
#>  9 mv9           1 lm    nrmse   0.218
#> 10 mv10          1 lm    nrmse   0.163
#> # ... with 27 more rows
…
