Create a basic plot of signals or fits — mbte_panel_plot • mbte
…
    See also

    filtered_signals (dataset used in examples),
facet_wrap

    Examples

library(ggplot2)

# load dataset
data(filtered_signals)
filtered_signals
#> # A tibble: 37 x 3
#>    mv    signal_nr signal           
#>    <chr>     <int> <list>           
#>  1 mv1           1 <tibble [22 × 2]>
#>  2 mv3           2 <tibble [22 × 2]>
#>  3 mv5           1 <tibble [30 × 2]>
#>  4 mv6           1 <tibble [21 × 2]>
#>  5 mv6           3 <tibble [30 × 2]>
#>  6 mv7           1 <tibble [56 × 2]>
#>  7 mv8           1 <tibble [29 × 2]>
#>  8 mv8           2 <tibble [26 × 2]>
#>  9 mv9           1 <tibble [63 × 2]>
#> 10 mv10          1 <tibble [25 × 2]>
#> # … with 27 more rows
…
