Combine `time`- and `value`- columns to a list-column (`signal`). — mbte_nest_signals • mbte
…
    raw_signals (dataset used in examples)

    Examples

library(dplyr, warn.conflicts = FALSE)
data(raw_signals)

# create ungrouped tbl_mbte
tbl <- new_tbl_mbte(raw_signals, time = "t", value = "value")

# NOTE: grouping variable specified manually (grouping based on the
# "measurement variable"-column, which is describing the measured parameter)
mbte_nest_signals(tbl, "mv")
#> # A tibble: 42 x 2
#>    mv    signal            
#>    <chr> <list>            
#>  1 mv1   <tibble [100 × 2]>
#>  2 mv2   <tibble [100 × 2]>
#>  3 mv3   <tibble [100 × 2]>
#>  4 mv4   <tibble [100 × 2]>
#>  5 mv5   <tibble [100 × 2]>
#>  6 mv6   <tibble [100 × 2]>
#>  7 mv7   <tibble [100 × 2]>
#>  8 mv8   <tibble [100 × 2]>
#>  9 mv9   <tibble [100 × 2]>
#> 10 mv10  <tibble [100 × 2]>
#> # ... with 32 more rows

# alternative: use pregrouped table
tbl <- raw_signals %>%
  group_by(mv) %>%
  new_tbl_mbte(time = "t", value = "value")

# yields the same result
mbte_nest_signals(tbl)
#> # A tibble: 42 x 2
#>    mv    signal            
#>    <chr> <list>            
#>  1 mv1   <tibble [100 × 2]>
#>  2 mv2   <tibble [100 × 2]>
#>  3 mv3   <tibble [100 × 2]>
#>  4 mv4   <tibble [100 × 2]>
#>  5 mv5   <tibble [100 × 2]>
#>  6 mv6   <tibble [100 × 2]>
#>  7 mv7   <tibble [100 × 2]>
#>  8 mv8   <tibble [100 × 2]>
#>  9 mv9   <tibble [100 × 2]>
#> 10 mv10  <tibble [100 × 2]>
#> # ... with 32 more rows
…
