Fit models to signals — mbte_fit • mbte
…
# fit linear models to signals (by returning a predict()-compatible object
# and by returning a numeric vector of the correct length)
#
# NOTE: `.signal` is not defined in this scope. However, masking is used and
# to provide the signal-tibble as described above.
fits1 <- mbte_fit(filtered_signals,
  lm1 = lm(value ~ t, .signal), # rely on predict()
  lm2 = predict(lm(value ~ t, .signal)) # return numeric vector
)

# resuting table with `fits`-column added
fits1
#> # A tibble: 37 x 4
#>    mv    signal_nr signal            fits             
#>    <chr>     <int> <list>            <list>           
#>  1 mv1           1 <tibble [22 × 2]> <tibble [22 × 2]>
#>  2 mv3           2 <tibble [22 × 2]> <tibble [22 × 2]>
#>  3 mv5           1 <tibble [30 × 2]> <tibble [30 × 2]>
#>  4 mv6           1 <tibble [21 × 2]> <tibble [21 × 2]>
#>  5 mv6           3 <tibble [30 × 2]> <tibble [30 × 2]>
#>  6 mv7           1 <tibble [56 × 2]> <tibble [56 × 2]>
#>  7 mv8           1 <tibble [29 × 2]> <tibble [29 × 2]>
#>  8 mv8           2 <tibble [26 × 2]> <tibble [26 × 2]>
#>  9 mv9           1 <tibble [63 × 2]> <tibble [63 × 2]>
#> 10 mv10          1 <tibble [25 × 2]> <tibble [25 × 2]>
#> # ... with 27 more rows

# a tibble in the `fits`-list column; the columns `fit1` and `fit2` are
# equivalent (only different ways of returning the fittind signal-values have
# been used).
fits1$fits[[1]]
#> # A tibble: 22 x 2
#>      lm1   lm2
#>    <dbl> <dbl>
#>  1 0.302 0.302
#>  2 0.344 0.344
#>  3 0.386 0.386
#>  4 0.429 0.429
#>  5 0.471 0.471
#>  6 0.514 0.514
#>  7 0.556 0.556
#>  8 0.599 0.599
#>  9 0.641 0.641
#> 10 0.684 0.684
#> # ... with 12 more rows

# use tidy-dots semantics of mbte_fit() - useful if fitting quosures are
# generated programmatically

# define fitting quosures
fitting_candidates <- rlang::quos(
  lm1 = lm(value ~ t, .signal), # rely on predict()
  lm2 = predict(lm(value ~ t, .signal)) # return numeric vector
)

# use tidy-dots splicing (equivalent to call producing `fits1` above)
fits2 <- mbte_fit(filtered_signals, !!!fitting_candidates)
fits2
#> # A tibble: 37 x 4
#>    mv    signal_nr signal            fits             
#>    <chr>     <int> <list>            <list>           
#>  1 mv1           1 <tibble [22 × 2]> <tibble [22 × 2]>
#>  2 mv3           2 <tibble [22 × 2]> <tibble [22 × 2]>
#>  3 mv5           1 <tibble [30 × 2]> <tibble [30 × 2]>
#>  4 mv6           1 <tibble [21 × 2]> <tibble [21 × 2]>
#>  5 mv6           3 <tibble [30 × 2]> <tibble [30 × 2]>
#>  6 mv7           1 <tibble [56 × 2]> <tibble [56 × 2]>
#>  7 mv8           1 <tibble [29 × 2]> <tibble [29 × 2]>
#>  8 mv8           2 <tibble [26 × 2]> <tibble [26 × 2]>
#>  9 mv9           1 <tibble [63 × 2]> <tibble [63 × 2]>
#> 10 mv10          1 <tibble [25 × 2]> <tibble [25 × 2]>
#> # ... with 27 more rows

fits2$fits[[1]]
#> # A tibble: 22 x 2
#>      lm1   lm2
#>    <dbl> <dbl>
#>  1 0.302 0.302
#>  2 0.344 0.344
#>  3 0.386 0.386
#>  4 0.429 0.429
#>  5 0.471 0.471
#>  6 0.514 0.514
#>  7 0.556 0.556
#>  8 0.599 0.599
#>  9 0.641 0.641
#> 10 0.684 0.684
#> # ... with 12 more rows
…
