…
Other tbl_mbte functions: is_tbl_mbte,
  mbte_reconstruct, tbl_mbte

    Examples

data(raw_signals)

# rely on quotation
# NOT RUN {
new_tbl_mbte(raw_signals, time = t, value = value)
# }
# pass column names as strings
new_tbl_mbte(raw_signals, time = "t", value = "value")
#> # A tibble: 4,200 x 3
#>        t mv    value
#>    <int> <chr> <dbl>
#>  1     1 mv1       0
#>  2     2 mv1       0
#>  3     3 mv1       0
#>  4     4 mv1       0
#>  5     5 mv1       0
#>  6     6 mv1       0
#>  7     7 mv1       0
#>  8     8 mv1       0
#>  9     9 mv1       0
#> 10    10 mv1       0
#> # … with 4,190 more rows

# pass symbols using quasiquotation
time_sym <- rlang::sym("t")
value_sym <- rlang::sym("value")
new_tbl_mbte(raw_signals, time = !!time_sym, value = !!value_sym)
#> # A tibble: 4,200 x 3
#>        t mv    value
#>    <int> <chr> <dbl>
#>  1     1 mv1       0
#>  2     2 mv1       0
#>  3     3 mv1       0
#>  4     4 mv1       0
#>  5     5 mv1       0
#>  6     6 mv1       0
#>  7     7 mv1       0
#>  8     8 mv1       0
#>  9     9 mv1       0
#> 10    10 mv1       0
#> # … with 4,190 more rows
…
